…
original_books <- austen_books() %>%
  group_by(book) %>%
  mutate(line = row_number(),
         chapter = cumsum(str_detect(text, regex("^chapter [\\divxlc]",
                                                 ignore_case = TRUE)))) %>%
  ungroup()

original_books
```

```{r}
## # A tibble: 73,422 x 4
##    text                    book                 line chapter
##    <chr>                   <fct>               <int>   <int>
##  1 "SENSE AND SENSIBILITY" Sense & Sensibility     1       0
##  2 ""                      Sense & Sensibility     2       0
##  3 "by Jane Austen"        Sense & Sensibility     3       0
##  4 ""                      Sense & Sensibility     4       0
##  5 "(1811)"                Sense & Sensibility     5       0
##  6 ""                      Sense & Sensibility     6       0
##  7 ""                      Sense & Sensibility     7       0
##  8 ""                      Sense & Sensibility     8       0
##  9 ""                      Sense & Sensibility     9       0
## 10 "CHAPTER 1"             Sense & Sensibility    10       1
## # … with 73,412 more rows
```

To work with this as a tidy dataset, we need to restructure it as one-token-per-row format. The unnest_tokens function is a way to convert a dataframe with a text column to be one-token-per-row:

```{r}
library(tidytext)
tidy_books <- original_books %>%
  unnest_tokens(word, text)

tidy_books
```

```{r}
## # A tibble: 725,055 x 4
##    book                 line chapter word       
##    <fct>               <int>   <int> <chr>      
##  1 Sense & Sensibility     1       0 sense      
##  2 Sense & Sensibility     1       0 and        
##  3 Sense & Sensibility     1       0 sensibility
##  4 Sense & Sensibility     3       0 by         
##  5 Sense & Sensibility     3       0 jane       
##  6 Sense & Sensibility     3       0 austen     
##  7 Sense & Sensibility     5       0 1811       
##  8 Sense & Sensibility    10       1 chapter    
##  9 Sense & Sensibility    10       1 1          
## 10 Sense & Sensibility    13       1 the        
## # … with 725,045 more rows
```
…
